{
    "defaultSeverity": "error",
    "extends": [
        "tslint:recommended"
    ],
    "jsRules": {},
    "rules": {
        "quotemark": [
            true,
            "single"
        ],
        "indent": [
            true,
            "tabs"
        ]
    },
    "rulesDirectory": []
}
